^C:\USERS\USER\DOCUMENTS\3TSY2021_BASPRG2_11934038_INFANTE_JOAQUIN\EX\EX5 BASPRG2\EX5 BASPRG2\DEBUG\ENEMY.OBJ|C:\USERS\USER\DOCUMENTS\3TSY2021_BASPRG2_11934038_INFANTE_JOAQUIN\EX\EX5 BASPRG2\EX5 BASPRG2\DEBUG\NAMESLIST.OBJ|C:\USERS\USER\DOCUMENTS\3TSY2021_BASPRG2_11934038_INFANTE_JOAQUIN\EX\EX5 BASPRG2\EX5 BASPRG2\DEBUG\SOURCE.OBJ|C:\USERS\USER\DOCUMENTS\3TSY2021_BASPRG2_11934038_INFANTE_JOAQUIN\EX\EX5 BASPRG2\EX5 BASPRG2\DEBUG\UNIT.OBJ
/OUT:"C:\USERS\USER\DOCUMENTS\3TSY2021_BASPRG2_11934038_INFANTE_JOAQUIN\EX\EX5 BASPRG2\DEBUG\EX5 BASPRG2.EXE" /INCREMENTAL /NOLOGO KERNEL32.LIB USER32.LIB GDI32.LIB WINSPOOL.LIB COMDLG32.LIB ADVAPI32.LIB SHELL32.LIB OLE32.LIB OLEAUT32.LIB UUID.LIB ODBC32.LIB ODBCCP32.LIB /MANIFEST /MANIFESTUAC:"level='asInvoker' uiAccess='false'" /manifest:embed /DEBUG:FASTLINK /PDB:"C:\USERS\USER\DOCUMENTS\3TSY2021_BASPRG2_11934038_INFANTE_JOAQUIN\EX\EX5 BASPRG2\DEBUG\EX5 BASPRG2.PDB" /SUBSYSTEM:CONSOLE /TLBID:1 /DYNAMICBASE /NXCOMPAT /IMPLIB:"C:\USERS\USER\DOCUMENTS\3TSY2021_BASPRG2_11934038_INFANTE_JOAQUIN\EX\EX5 BASPRG2\DEBUG\EX5 BASPRG2.LIB" /MACHINE:X86 DEBUG\ENEMY.OBJ
DEBUG\NAMESLIST.OBJ
DEBUG\SOURCE.OBJ
DEBUG\UNIT.OBJ
