^C:\USERS\USER\DOCUMENTS\3TSY2021_BASPRG2_11934038_INFANTE_JOAQUIN\QUIZZES\QUIZ3\QUIZ 3 BASPRG2\QUIZ 3\ENEMY.CPP|C:\USERS\USER\DOCUMENTS\3TSY2021_BASPRG2_11934038_INFANTE_JOAQUIN\QUIZZES\QUIZ3\QUIZ 3 BASPRG2\QUIZ 3\FIRST FANTASY.CPP|C:\USERS\USER\DOCUMENTS\3TSY2021_BASPRG2_11934038_INFANTE_JOAQUIN\QUIZZES\QUIZ3\QUIZ 3 BASPRG2\QUIZ 3\NAMESLIST.CPP|C:\USERS\USER\DOCUMENTS\3TSY2021_BASPRG2_11934038_INFANTE_JOAQUIN\QUIZZES\QUIZ3\QUIZ 3 BASPRG2\QUIZ 3\PLAYER.CPP
C:\USERS\USER\DOCUMENTS\3TSY2021_BASPRG2_11934038_INFANTE_JOAQUIN\QUIZZES\QUIZ3\QUIZ 3 BASPRG2\QUIZ 3\X64\DEBUG\VC142.PDB
C:\USERS\USER\DOCUMENTS\3TSY2021_BASPRG2_11934038_INFANTE_JOAQUIN\QUIZZES\QUIZ3\QUIZ 3 BASPRG2\QUIZ 3\X64\DEBUG\VC142.IDB
C:\USERS\USER\DOCUMENTS\3TSY2021_BASPRG2_11934038_INFANTE_JOAQUIN\QUIZZES\QUIZ3\QUIZ 3 BASPRG2\QUIZ 3\X64\DEBUG\PLAYER.OBJ
C:\USERS\USER\DOCUMENTS\3TSY2021_BASPRG2_11934038_INFANTE_JOAQUIN\QUIZZES\QUIZ3\QUIZ 3 BASPRG2\QUIZ 3\X64\DEBUG\NAMESLIST.OBJ
C:\USERS\USER\DOCUMENTS\3TSY2021_BASPRG2_11934038_INFANTE_JOAQUIN\QUIZZES\QUIZ3\QUIZ 3 BASPRG2\QUIZ 3\X64\DEBUG\ENEMY.OBJ
C:\USERS\USER\DOCUMENTS\3TSY2021_BASPRG2_11934038_INFANTE_JOAQUIN\QUIZZES\QUIZ3\QUIZ 3 BASPRG2\QUIZ 3\X64\DEBUG\FIRST FANTASY.OBJ
^C:\USERS\USER\DOCUMENTS\3TSY2021_BASPRG2_11934038_INFANTE_JOAQUIN\QUIZZES\QUIZ3\QUIZ 3 BASPRG2\QUIZ 3\NAMESLIST.CPP
C:\USERS\USER\DOCUMENTS\3TSY2021_BASPRG2_11934038_INFANTE_JOAQUIN\QUIZZES\QUIZ3\QUIZ 3 BASPRG2\QUIZ 3\X64\DEBUG\VC142.PDB
^C:\USERS\USER\DOCUMENTS\3TSY2021_BASPRG2_11934038_INFANTE_JOAQUIN\QUIZZES\QUIZ3\QUIZ 3 BASPRG2\QUIZ 3\ENEMY.CPP|C:\USERS\USER\DOCUMENTS\3TSY2021_BASPRG2_11934038_INFANTE_JOAQUIN\QUIZZES\QUIZ3\QUIZ 3 BASPRG2\QUIZ 3\FIRST FANTASY.CPP|C:\USERS\USER\DOCUMENTS\3TSY2021_BASPRG2_11934038_INFANTE_JOAQUIN\QUIZZES\QUIZ3\QUIZ 3 BASPRG2\QUIZ 3\PLAYER.CPP
C:\USERS\USER\DOCUMENTS\3TSY2021_BASPRG2_11934038_INFANTE_JOAQUIN\QUIZZES\QUIZ3\QUIZ 3 BASPRG2\QUIZ 3\X64\DEBUG\VC142.PDB
C:\USERS\USER\DOCUMENTS\3TSY2021_BASPRG2_11934038_INFANTE_JOAQUIN\QUIZZES\QUIZ3\QUIZ 3 BASPRG2\QUIZ 3\X64\DEBUG\VC142.IDB
C:\USERS\USER\DOCUMENTS\3TSY2021_BASPRG2_11934038_INFANTE_JOAQUIN\QUIZZES\QUIZ3\QUIZ 3 BASPRG2\QUIZ 3\X64\DEBUG\PLAYER.OBJ
C:\USERS\USER\DOCUMENTS\3TSY2021_BASPRG2_11934038_INFANTE_JOAQUIN\QUIZZES\QUIZ3\QUIZ 3 BASPRG2\QUIZ 3\X64\DEBUG\FIRST FANTASY.OBJ
^C:\USERS\USER\DOCUMENTS\3TSY2021_BASPRG2_11934038_INFANTE_JOAQUIN\QUIZZES\QUIZ3\QUIZ 3 BASPRG2\QUIZ 3\FIRST FANTASY.CPP
C:\USERS\USER\DOCUMENTS\3TSY2021_BASPRG2_11934038_INFANTE_JOAQUIN\QUIZZES\QUIZ3\QUIZ 3 BASPRG2\QUIZ 3\X64\DEBUG\FIRST FANTASY.OBJ
^C:\USERS\USER\DOCUMENTS\3TSY2021_BASPRG2_11934038_INFANTE_JOAQUIN\QUIZZES\QUIZ3\QUIZ 3 BASPRG2\QUIZ 3\ENEMY.CPP|C:\USERS\USER\DOCUMENTS\3TSY2021_BASPRG2_11934038_INFANTE_JOAQUIN\QUIZZES\QUIZ3\QUIZ 3 BASPRG2\QUIZ 3\PLAYER.CPP
C:\USERS\USER\DOCUMENTS\3TSY2021_BASPRG2_11934038_INFANTE_JOAQUIN\QUIZZES\QUIZ3\QUIZ 3 BASPRG2\QUIZ 3\X64\DEBUG\VC142.PDB
C:\USERS\USER\DOCUMENTS\3TSY2021_BASPRG2_11934038_INFANTE_JOAQUIN\QUIZZES\QUIZ3\QUIZ 3 BASPRG2\QUIZ 3\X64\DEBUG\VC142.IDB
C:\USERS\USER\DOCUMENTS\3TSY2021_BASPRG2_11934038_INFANTE_JOAQUIN\QUIZZES\QUIZ3\QUIZ 3 BASPRG2\QUIZ 3\X64\DEBUG\PLAYER.OBJ
^C:\USERS\USER\DOCUMENTS\3TSY2021_BASPRG2_11934038_INFANTE_JOAQUIN\QUIZZES\QUIZ3\QUIZ 3 BASPRG2\QUIZ 3\PLAYER.CPP
C:\USERS\USER\DOCUMENTS\3TSY2021_BASPRG2_11934038_INFANTE_JOAQUIN\QUIZZES\QUIZ3\QUIZ 3 BASPRG2\QUIZ 3\X64\DEBUG\PLAYER.OBJ
^C:\USERS\USER\DOCUMENTS\3TSY2021_BASPRG2_11934038_INFANTE_JOAQUIN\QUIZZES\QUIZ3\QUIZ 3 BASPRG2\QUIZ 3\ENEMY.CPP
C:\USERS\USER\DOCUMENTS\3TSY2021_BASPRG2_11934038_INFANTE_JOAQUIN\QUIZZES\QUIZ3\QUIZ 3 BASPRG2\QUIZ 3\X64\DEBUG\VC142.PDB
C:\USERS\USER\DOCUMENTS\3TSY2021_BASPRG2_11934038_INFANTE_JOAQUIN\QUIZZES\QUIZ3\QUIZ 3 BASPRG2\QUIZ 3\X64\DEBUG\VC142.IDB
C:\USERS\USER\DOCUMENTS\3TSY2021_BASPRG2_11934038_INFANTE_JOAQUIN\QUIZZES\QUIZ3\QUIZ 3 BASPRG2\QUIZ 3\X64\DEBUG\ENEMY.OBJ
