^C:\USERS\USER\DOCUMENTS\3TSY2021_BASPRG2_11934038_INFANTE_JOAQUIN\QUIZZES\QUIZ3\QUIZ 3 BASPRG2\QUIZ 3\X64\DEBUG\ENEMY.OBJ|C:\USERS\USER\DOCUMENTS\3TSY2021_BASPRG2_11934038_INFANTE_JOAQUIN\QUIZZES\QUIZ3\QUIZ 3 BASPRG2\QUIZ 3\X64\DEBUG\FIRST FANTASY.OBJ|C:\USERS\USER\DOCUMENTS\3TSY2021_BASPRG2_11934038_INFANTE_JOAQUIN\QUIZZES\QUIZ3\QUIZ 3 BASPRG2\QUIZ 3\X64\DEBUG\NAMESLIST.OBJ|C:\USERS\USER\DOCUMENTS\3TSY2021_BASPRG2_11934038_INFANTE_JOAQUIN\QUIZZES\QUIZ3\QUIZ 3 BASPRG2\QUIZ 3\X64\DEBUG\PLAYER.OBJ
/OUT:"C:\USERS\USER\DOCUMENTS\3TSY2021_BASPRG2_11934038_INFANTE_JOAQUIN\QUIZZES\QUIZ3\QUIZ 3 BASPRG2\X64\DEBUG\QUIZ 3.EXE" /INCREMENTAL /NOLOGO KERNEL32.LIB USER32.LIB GDI32.LIB WINSPOOL.LIB COMDLG32.LIB ADVAPI32.LIB SHELL32.LIB OLE32.LIB OLEAUT32.LIB UUID.LIB ODBC32.LIB ODBCCP32.LIB /MANIFEST /MANIFESTUAC:"level='asInvoker' uiAccess='false'" /manifest:embed /DEBUG:FASTLINK /PDB:"C:\USERS\USER\DOCUMENTS\3TSY2021_BASPRG2_11934038_INFANTE_JOAQUIN\QUIZZES\QUIZ3\QUIZ 3 BASPRG2\X64\DEBUG\QUIZ 3.PDB" /SUBSYSTEM:CONSOLE /TLBID:1 /DYNAMICBASE /NXCOMPAT /IMPLIB:"C:\USERS\USER\DOCUMENTS\3TSY2021_BASPRG2_11934038_INFANTE_JOAQUIN\QUIZZES\QUIZ3\QUIZ 3 BASPRG2\X64\DEBUG\QUIZ 3.LIB" /MACHINE:X64 X64\DEBUG\ENEMY.OBJ
"X64\DEBUG\FIRST FANTASY.OBJ"
X64\DEBUG\NAMESLIST.OBJ
X64\DEBUG\PLAYER.OBJ
