^C:\USERS\USER\DOCUMENTS\3TSY2021_BASPRG2_11934038_INFANTE_JOAQUIN\QUIZZES\QUIZ3\QUIZ 3\QUIZ 3\ENEMY.CPP
/c /ZI /JMC /nologo /W3 /WX- /diagnostics:column /sdl /Od /Oy- /D WIN32 /D _DEBUG /D _CONSOLE /D _UNICODE /D UNICODE /Gm- /EHsc /RTC1 /MDd /GS /fp:precise /permissive- /Zc:wchar_t /Zc:forScope /Zc:inline /Fo"DEBUG\\" /Fd"DEBUG\VC142.PDB" /Gd /TP /analyze- /FC C:\USERS\USER\DOCUMENTS\3TSY2021_BASPRG2_11934038_INFANTE_JOAQUIN\QUIZZES\QUIZ3\QUIZ 3\QUIZ 3\ENEMY.CPP
^C:\USERS\USER\DOCUMENTS\3TSY2021_BASPRG2_11934038_INFANTE_JOAQUIN\QUIZZES\QUIZ3\QUIZ 3\QUIZ 3\NAMESLIST.CPP
/c /ZI /JMC /nologo /W3 /WX- /diagnostics:column /sdl /Od /Oy- /D WIN32 /D _DEBUG /D _CONSOLE /D _UNICODE /D UNICODE /Gm- /EHsc /RTC1 /MDd /GS /fp:precise /permissive- /Zc:wchar_t /Zc:forScope /Zc:inline /Fo"DEBUG\\" /Fd"DEBUG\VC142.PDB" /Gd /TP /analyze- /FC C:\USERS\USER\DOCUMENTS\3TSY2021_BASPRG2_11934038_INFANTE_JOAQUIN\QUIZZES\QUIZ3\QUIZ 3\QUIZ 3\NAMESLIST.CPP
^C:\USERS\USER\DOCUMENTS\3TSY2021_BASPRG2_11934038_INFANTE_JOAQUIN\QUIZZES\QUIZ3\QUIZ 3\QUIZ 3\PLAYER.CPP
/c /ZI /JMC /nologo /W3 /WX- /diagnostics:column /sdl /Od /Oy- /D WIN32 /D _DEBUG /D _CONSOLE /D _UNICODE /D UNICODE /Gm- /EHsc /RTC1 /MDd /GS /fp:precise /permissive- /Zc:wchar_t /Zc:forScope /Zc:inline /Fo"DEBUG\\" /Fd"DEBUG\VC142.PDB" /Gd /TP /analyze- /FC C:\USERS\USER\DOCUMENTS\3TSY2021_BASPRG2_11934038_INFANTE_JOAQUIN\QUIZZES\QUIZ3\QUIZ 3\QUIZ 3\PLAYER.CPP
^C:\USERS\USER\DOCUMENTS\3TSY2021_BASPRG2_11934038_INFANTE_JOAQUIN\QUIZZES\QUIZ3\QUIZ 3\QUIZ 3\FIRST FANTASY.CPP
/c /ZI /JMC /nologo /W3 /WX- /diagnostics:column /sdl /Od /Oy- /D WIN32 /D _DEBUG /D _CONSOLE /D _UNICODE /D UNICODE /Gm- /EHsc /RTC1 /MDd /GS /fp:precise /permissive- /Zc:wchar_t /Zc:forScope /Zc:inline /Fo"DEBUG\\" /Fd"DEBUG\VC142.PDB" /Gd /TP /analyze- /FC C:\USERS\USER\DOCUMENTS\3TSY2021_BASPRG2_11934038_INFANTE_JOAQUIN\QUIZZES\QUIZ3\QUIZ 3\QUIZ 3\FIRST FANTASY.CPP
