^C:\USERS\USER\DOCUMENTS\3TSY2021_BASPRG2_11934038_INFANTE_JOAQUIN\QUIZZES\QUIZ3\QUIZ 3\QUIZ 3\DEBUG\ENEMY.OBJ|C:\USERS\USER\DOCUMENTS\3TSY2021_BASPRG2_11934038_INFANTE_JOAQUIN\QUIZZES\QUIZ3\QUIZ 3\QUIZ 3\DEBUG\FIRST FANTASY.OBJ|C:\USERS\USER\DOCUMENTS\3TSY2021_BASPRG2_11934038_INFANTE_JOAQUIN\QUIZZES\QUIZ3\QUIZ 3\QUIZ 3\DEBUG\NAMESLIST.OBJ|C:\USERS\USER\DOCUMENTS\3TSY2021_BASPRG2_11934038_INFANTE_JOAQUIN\QUIZZES\QUIZ3\QUIZ 3\QUIZ 3\DEBUG\PLAYER.OBJ
C:\USERS\USER\DOCUMENTS\3TSY2021_BASPRG2_11934038_INFANTE_JOAQUIN\QUIZZES\QUIZ3\QUIZ 3\DEBUG\QUIZ 3.EXE
C:\USERS\USER\DOCUMENTS\3TSY2021_BASPRG2_11934038_INFANTE_JOAQUIN\QUIZZES\QUIZ3\QUIZ 3\DEBUG\QUIZ 3.ILK
C:\USERS\USER\DOCUMENTS\3TSY2021_BASPRG2_11934038_INFANTE_JOAQUIN\QUIZZES\QUIZ3\QUIZ 3\DEBUG\QUIZ 3.PDB
